<svg width="114" height="28" viewBox="0 0 114 28" fill="none" xmlns="http://www.w3.org/2000/svg">
<path d="M8.01875 7.23301H4.59646L4.58214 20.0489H2.57745L2.59177 7.23301H0V5.1467H2.59177L2.57745 0.467407H4.58214L4.59646 5.1467H8.01875V7.23301Z" fill="#006CE5"/>
<path d="M16.483 20.4364C15.1656 20.4364 13.9628 20.0837 12.8745 19.3783C11.7958 18.6729 10.9319 17.7291 10.2827 16.5469C9.64316 15.3547 9.32336 14.0383 9.32336 12.5978C9.32336 11.505 9.50951 10.4867 9.88181 9.54285C10.2541 8.58911 10.7648 7.75458 11.414 7.03928C12.0726 6.31404 12.8363 5.74775 13.705 5.34043C14.5737 4.9331 15.4997 4.72944 16.483 4.72944C17.8003 4.72944 18.9984 5.08212 20.0771 5.78749C21.1653 6.49287 22.0293 7.44164 22.6688 8.63381C23.318 9.82599 23.6426 11.1473 23.6426 12.5978C23.6426 13.6807 23.4564 14.694 23.0841 15.6379C22.7118 16.5817 22.1963 17.4162 21.5376 18.1414C20.8885 18.8567 20.1296 19.418 19.2609 19.8254C18.4017 20.2327 17.4758 20.4364 16.483 20.4364ZM16.483 18.3501C17.4567 18.3501 18.3301 18.0868 19.1034 17.5602C19.8862 17.0238 20.5019 16.3184 20.9505 15.4441C21.4088 14.5699 21.6379 13.6211 21.6379 12.5978C21.6379 11.5546 21.4088 10.5959 20.9505 9.72168C20.4923 8.83748 19.8718 8.13211 19.089 7.60556C18.3158 7.07902 17.4471 6.81575 16.483 6.81575C15.5093 6.81575 14.631 7.08398 13.8482 7.62046C13.075 8.14701 12.4593 8.84741 12.001 9.72168C11.5524 10.5959 11.328 11.5546 11.328 12.5978C11.328 13.6708 11.5619 14.6444 12.0297 15.5186C12.4974 16.383 13.1227 17.0734 13.9055 17.59C14.6883 18.0967 15.5474 18.3501 16.483 18.3501Z" fill="#006CE5"/>
<path d="M28.0725 27.5H26.0679V5.1467H28.0725V7.93341C28.5689 6.98961 29.2467 6.22463 30.1059 5.63847C30.965 5.05232 31.9865 4.75924 33.1702 4.75924C34.2107 4.75924 35.1844 4.9629 36.0913 5.37023C37.0077 5.77756 37.8096 6.34384 38.4969 7.06908C39.1842 7.78439 39.7236 8.61395 40.115 9.55775C40.5064 10.5016 40.7021 11.5149 40.7021 12.5978C40.7021 13.6807 40.5064 14.699 40.115 15.6528C39.7236 16.6065 39.1842 17.446 38.4969 18.1712C37.8096 18.8865 37.0077 19.4478 36.0913 19.8552C35.1844 20.2625 34.2107 20.4662 33.1702 20.4662C31.9865 20.4662 30.965 20.1731 30.1059 19.5869C29.2467 19.0008 28.5689 18.2358 28.0725 17.292V27.5ZM33.1559 6.78594C32.1535 6.78594 31.2801 7.04921 30.5355 7.57576C29.8004 8.09237 29.2324 8.7878 28.8315 9.66207C28.4305 10.5363 28.2301 11.5149 28.2301 12.5978C28.2301 13.6608 28.4258 14.6344 28.8171 15.5186C29.2181 16.4028 29.7861 17.1082 30.5211 17.6347C31.2657 18.1613 32.144 18.4246 33.1559 18.4246C34.1487 18.4246 35.0603 18.1663 35.8908 17.6496C36.7309 17.133 37.4039 16.4376 37.9098 15.5633C38.4158 14.6791 38.6688 13.6906 38.6688 12.5978C38.6688 11.5348 38.4206 10.5661 37.9242 9.69187C37.4278 8.80767 36.7643 8.1023 35.9338 7.57576C35.1033 7.04921 34.1773 6.78594 33.1559 6.78594Z" fill="#006CE5"/>
<path d="M56.3841 10.6307V20.0489H52.8902V11.5845C52.8902 10.9983 52.7518 10.4668 52.4749 9.98992C52.1981 9.50311 51.8258 9.12062 51.358 8.84245C50.8998 8.55434 50.3891 8.41028 49.8259 8.41028C49.2626 8.41028 48.7472 8.55434 48.2794 8.84245C47.8212 9.12062 47.4536 9.50311 47.1768 9.98992C46.9095 10.4668 46.7759 10.9983 46.7759 11.5845V20.0489H43.282L43.2677 5.1467H46.7616L46.7759 6.47299C47.2627 5.93652 47.845 5.51429 48.5228 5.20631C49.2006 4.88839 49.9309 4.72944 50.7136 4.72944C51.7542 4.72944 52.704 4.99768 53.5632 5.53416C54.4223 6.0607 55.1049 6.77104 55.6108 7.66517C56.1263 8.54937 56.3841 9.53788 56.3841 10.6307Z" fill="#006CE5"/>
<path d="M65.2577 20.4364C63.9403 20.4364 62.7375 20.0837 61.6493 19.3783C60.5706 18.6729 59.7066 17.7242 59.0575 16.532C58.4179 15.3398 58.0981 14.0234 58.0981 12.5829C58.0981 11.5 58.2843 10.4867 58.6566 9.54285C59.0289 8.58911 59.5396 7.75458 60.1887 7.03928C60.8474 6.31404 61.6111 5.74775 62.4798 5.34043C63.3485 4.9331 64.2744 4.72944 65.2577 4.72944C66.3746 4.72944 67.396 4.97781 68.322 5.47455C69.2575 5.96135 70.0499 6.63195 70.699 7.48634C71.3481 8.34074 71.8207 9.31435 72.1166 10.4072C72.4125 11.5 72.4793 12.6425 72.3171 13.8347H61.8497C61.9834 14.391 62.2029 14.8927 62.5084 15.3398C62.8139 15.7769 63.2005 16.1296 63.6683 16.3979C64.136 16.6562 64.6658 16.7903 65.2577 16.8002C65.8687 16.8102 66.4223 16.6611 66.9187 16.3532C67.4247 16.0352 67.8447 15.608 68.1788 15.0716L71.7443 15.9359C71.162 17.2572 70.2933 18.3401 69.1382 19.1846C67.9831 20.0191 66.6896 20.4364 65.2577 20.4364ZM61.7352 11.1076H68.7802C68.6752 10.5115 68.4509 9.97501 68.1072 9.49814C67.7731 9.01134 67.3578 8.62388 66.8615 8.33577C66.3651 8.04766 65.8305 7.90361 65.2577 7.90361C64.6849 7.90361 64.1551 8.04766 63.6683 8.33577C63.1814 8.61395 62.7662 8.99644 62.4225 9.48324C62.0884 9.96011 61.8593 10.5016 61.7352 11.1076Z" fill="#006CE5"/>
<path d="M81.3643 20.0489H77.8991L73.1165 5.1467H76.5388L79.646 14.7884L82.739 5.1467H86.1899L89.2828 14.7884L92.3901 5.1467H95.8124L91.0298 20.0489H87.5645L84.4573 10.3625L81.3643 20.0489Z" fill="#006CE5"/>
<path d="M102.056 20.3171C101.311 20.2675 100.59 20.1135 99.8936 19.8552C99.2063 19.5869 98.5953 19.2243 98.0607 18.7673C97.5261 18.3103 97.1157 17.7639 96.8293 17.1281L99.779 15.8167C99.8936 16.0154 100.08 16.229 100.337 16.4575C100.595 16.676 100.901 16.8598 101.254 17.0089C101.617 17.1579 102.013 17.2324 102.442 17.2324C102.805 17.2324 103.149 17.1827 103.473 17.0834C103.808 16.9741 104.075 16.8102 104.275 16.5916C104.485 16.373 104.59 16.0899 104.59 15.7422C104.59 15.3746 104.466 15.0914 104.218 14.8927C103.979 14.6841 103.674 14.5301 103.302 14.4308C102.939 14.3215 102.586 14.2221 102.242 14.1327C101.335 13.944 100.49 13.6509 99.7074 13.2535C98.9342 12.8561 98.3089 12.3445 97.8316 11.7186C97.3639 11.0827 97.13 10.3178 97.13 9.42363C97.13 8.44009 97.3782 7.59066 97.8746 6.87535C98.3805 6.16005 99.0344 5.60867 99.8363 5.22121C100.648 4.83375 101.521 4.64002 102.457 4.64002C103.593 4.64002 104.633 4.88839 105.578 5.38513C106.533 5.87194 107.287 6.56241 107.841 7.45654L105.077 9.15539C104.943 8.91696 104.757 8.69839 104.519 8.49969C104.28 8.29106 104.008 8.12217 103.702 7.99302C103.397 7.85393 103.077 7.77445 102.743 7.75458C102.314 7.73472 101.922 7.77445 101.569 7.8738C101.216 7.97315 100.929 8.14204 100.71 8.38048C100.5 8.61891 100.395 8.93683 100.395 9.33422C100.395 9.71174 100.538 9.99488 100.824 10.1836C101.111 10.3625 101.454 10.5016 101.855 10.6009C102.266 10.7003 102.657 10.8095 103.029 10.9288C103.87 11.2169 104.657 11.5695 105.392 11.9868C106.137 12.4041 106.733 12.9157 107.182 13.5217C107.631 14.1278 107.846 14.853 107.826 15.6975C107.826 16.6611 107.55 17.5056 106.996 18.2308C106.442 18.9461 105.726 19.4926 104.848 19.8701C103.979 20.2476 103.049 20.3966 102.056 20.3171Z" fill="#006CE5"/>
<path d="M111.852 20.4364C111.251 20.4364 110.74 20.2228 110.32 19.7956C109.909 19.3584 109.704 18.8269 109.704 18.201C109.704 17.5851 109.909 17.0585 110.32 16.6214C110.74 16.1843 111.251 15.9657 111.852 15.9657C112.444 15.9657 112.95 16.1843 113.37 16.6214C113.79 17.0585 114 17.5851 114 18.201C114 18.8269 113.79 19.3584 113.37 19.7956C112.95 20.2228 112.444 20.4364 111.852 20.4364Z" fill="#006CE5"/>
</svg>
